{
"200": "0xf01e",
"201": "0xf01e",
"202": "0xf01e",
"210": "0xf016",
"211": "0xf016",
"212": "0xf016",
"221": "0xf016",
"230": "0xf01e",
"231": "0xf01e",
"232": "0xf01e",
"300": "0xf01c",
"301": "0xf01c",
"302": "0xf019",
"310": "0xf017",
"311": "0xf019",
"312": "0xf019",
"313": "0xf01a",
"314": "0xf019",
"321": "0xf01c",
"500": "0xf01c",
"501": "0xf019",
"502": "0xf019",
"503": "0xf019",
"504": "0xf019",
"511": "0xf017",
"520": "0xf01a",
"521": "0xf01a",
"522": "0xf01a",
"531": "0xf01d",
"600": "0xf01b",
"601": "0xf01b",
"602": "0xf0b5",
"611": "0xf017",
"612": "0xf017",
"615": "0xf017",
"616": "0xf017",
"620": "0xf017",
"621": "0xf01b",
"622": "0xf01b",
"701": "0xf01a",
"711": "0xf062",
"721": "0xf0b6",
"731": "0xf063",
"741": "0xf014",
"761": "0xf063",
"762": "0xf063",
"771": "0xf011",
"781": "0xf056",
"800": "0xf00d",
"801": "0xf011",
"802": "0xf011",
"803": "0xf012",
"804": "0xf013",
"900": "0xf056",
"901": "0xf01d",
"902": "0xf073",
"903": "0xf076",
"904": "0xf072",
"905": "0xf021",
"906": "0xf015",
"957": "0xf050",
"day-200": "0xf010",
"day-201": "0xf010",
"day-202": "0xf010",
"day-210": "0xf005",
"day-211": "0xf005",
"day-212": "0xf005",
"day-221": "0xf005",
"day-230": "0xf010",
"day-231": "0xf010",
"day-232": "0xf010",
"day-300": "0xf00b",
"day-301": "0xf00b",
"day-302": "0xf008",
"day-310": "0xf008",
"day-311": "0xf008",
"day-312": "0xf008",
"day-313": "0xf008",
"day-314": "0xf008",
"day-321": "0xf00b",
"day-500": "0xf00b",
"day-501": "0xf008",
"day-502": "0xf008",
"day-503": "0xf008",
"day-504": "0xf008",
"day-511": "0xf006",
"day-520": "0xf009",
"day-521": "0xf009",
"day-522": "0xf009",
"day-531": "0xf00e",
"day-600": "0xf00a",
"day-601": "0xf0b2",
"day-602": "0xf00a",
"day-611": "0xf006",
"day-612": "0xf006",
"day-615": "0xf006",
"day-616": "0xf006",
"day-620": "0xf006",
"day-621": "0xf00a",
"day-622": "0xf00a",
"day-701": "0xf009",
"day-711": "0xf062",
"day-721": "0xf0b6",
"day-731": "0xf063",
"day-741": "0xf003",
"day-761": "0xf063",
"day-762": "0xf063",
"day-781": "0xf056",
"day-800": "0xf00d",
"day-801": "0xf000",
"day-802": "0xf000",
"day-803": "0xf000",
"day-804": "0xf00c",
"day-900": "0xf056",
"day-902": "0xf073",
"day-903": "0xf076",
"day-904": "0xf072",
"day-906": "0xf004",
"day-957": "0xf050",
"night-200": "0xf02d",
"night-201": "0xf02d",
"night-202": "0xf02d",
"night-210": "0xf025",
"night-211": "0xf025",
"night-212": "0xf025",
"night-221": "0xf025",
"night-230": "0xf02d",
"night-231": "0xf02d",
"night-232": "0xf02d",
"night-300": "0xf02b",
"night-301": "0xf02b",
"night-302": "0xf028",
"night-310": "0xf028",
"night-311": "0xf028",
"night-312": "0xf028",
"night-313": "0xf028",
"night-314": "0xf028",
"night-321": "0xf02b",
"night-500": "0xf02b",
"night-501": "0xf028",
"night-502": "0xf028",
"night-503": "0xf028",
"night-504": "0xf028",
"night-511": "0xf026",
"night-520": "0xf029",
"night-521": "0xf029",
"night-522": "0xf029",
"night-531": "0xf02c",
"night-600": "0xf02a",
"night-601": "0xf0b4",
"night-602": "0xf02a",
"night-611": "0xf026",
"night-612": "0xf026",
"night-615": "0xf026",
"night-616": "0xf026",
"night-620": "0xf026",
"night-621": "0xf02a",
"night-622": "0xf02a",
"night-701": "0xf029",
"night-711": "0xf062",
"night-721": "0xf0b6",
"night-731": "0xf063",
"night-741": "0xf04a",
"night-761": "0xf063",
"night-762": "0xf063",
"night-781": "0xf056",
"night-800": "0xf02e",
"night-801": "0xf022",
"night-802": "0xf022",
"night-803": "0xf022",
"night-804": "0xf086",
"night-900": "0xf056",
"night-902": "0xf073",
"night-903": "0xf076",
"night-904": "0xf072",
"night-906": "0xf024",
"night-957": "0xf050"
}